{
  "total_count": 262117,
  "incomplete_results": false,
  "items": [
    {
      "id": 11730342,
      "node_id": "MDEwOlJlcG9zaXRvcnkxMTczMDM0Mg==",
      "name": "vue",
      "full_name": "vuejs/vue",
      "private": false,
      "owner": {
        "login": "vuejs",
        "id": 6128107,
        "node_id": "MDEyOk9yZ2FuaXphdGlvbjYxMjgxMDc=",
        "avatar_url": "https://avatars1.githubusercontent.com/u/6128107?v=4",
        "gravatar_id": "",
        "url": "https://api.github.com/users/vuejs",
        "html_url": "https://github.com/vuejs",
        "followers_url": "https://api.github.com/users/vuejs/followers",
        "following_url": "https://api.github.com/users/vuejs/following{/other_user}",
        "gists_url": "https://api.github.com/users/vuejs/gists{/gist_id}",
        "starred_url": "https://api.github.com/users/vuejs/starred{/owner}{/repo}",
        "subscriptions_url": "https://api.github.com/users/vuejs/subscriptions",
        "organizations_url": "https://api.github.com/users/vuejs/orgs",
        "repos_url": "https://api.github.com/users/vuejs/repos",
        "events_url": "https://api.github.com/users/vuejs/events{/privacy}",
        "received_events_url": "https://api.github.com/users/vuejs/received_events",
        "type": "Organization",
        "site_admin": false
      },
      "html_url": "https://github.com/vuejs/vue",
      "description": "🖖 Vue.js is a progressive, incrementally-adoptable JavaScript framework for building UI on the web.",
      "fork": false,
      "url": "https://api.github.com/repos/vuejs/vue",
      "forks_url": "https://api.github.com/repos/vuejs/vue/forks",
      "keys_url": "https://api.github.com/repos/vuejs/vue/keys{/key_id}",
      "collaborators_url": "https://api.github.com/repos/vuejs/vue/collaborators{/collaborator}",
      "teams_url": "https://api.github.com/repos/vuejs/vue/teams",
      "hooks_url": "https://api.github.com/repos/vuejs/vue/hooks",
      "issue_events_url": "https://api.github.com/repos/vuejs/vue/issues/events{/number}",
      "events_url": "https://api.github.com/repos/vuejs/vue/events",
      "assignees_url": "https://api.github.com/repos/vuejs/vue/assignees{/user}",
      "branches_url": "https://api.github.com/repos/vuejs/vue/branches{/branch}",
      "tags_url": "https://api.github.com/repos/vuejs/vue/tags",
      "blobs_url": "https://api.github.com/repos/vuejs/vue/git/blobs{/sha}",
      "git_tags_url": "https://api.github.com/repos/vuejs/vue/git/tags{/sha}",
      "git_refs_url": "https://api.github.com/repos/vuejs/vue/git/refs{/sha}",
      "trees_url": "https://api.github.com/repos/vuejs/vue/git/trees{/sha}",
      "statuses_url": "https://api.github.com/repos/vuejs/vue/statuses/{sha}",
      "languages_url": "https://api.github.com/repos/vuejs/vue/languages",
      "stargazers_url": "https://api.github.com/repos/vuejs/vue/stargazers",
      "contributors_url": "https://api.github.com/repos/vuejs/vue/contributors",
      "subscribers_url": "https://api.github.com/repos/vuejs/vue/subscribers",
      "subscription_url": "https://api.github.com/repos/vuejs/vue/subscription",
      "commits_url": "https://api.github.com/repos/vuejs/vue/commits{/sha}",
      "git_commits_url": "https://api.github.com/repos/vuejs/vue/git/commits{/sha}",
      "comments_url": "https://api.github.com/repos/vuejs/vue/comments{/number}",
      "issue_comment_url": "https://api.github.com/repos/vuejs/vue/issues/comments{/number}",
      "contents_url": "https://api.github.com/repos/vuejs/vue/contents/{+path}",
      "compare_url": "https://api.github.com/repos/vuejs/vue/compare/{base}...{head}",
      "merges_url": "https://api.github.com/repos/vuejs/vue/merges",
      "archive_url": "https://api.github.com/repos/vuejs/vue/{archive_format}{/ref}",
      "downloads_url": "https://api.github.com/repos/vuejs/vue/downloads",
      "issues_url": "https://api.github.com/repos/vuejs/vue/issues{/number}",
      "pulls_url": "https://api.github.com/repos/vuejs/vue/pulls{/number}",
      "milestones_url": "https://api.github.com/repos/vuejs/vue/milestones{/number}",
      "notifications_url": "https://api.github.com/repos/vuejs/vue/notifications{?since,all,participating}",
      "labels_url": "https://api.github.com/repos/vuejs/vue/labels{/name}",
      "releases_url": "https://api.github.com/repos/vuejs/vue/releases{/id}",
      "deployments_url": "https://api.github.com/repos/vuejs/vue/deployments",
      "created_at": "2013-07-29T03:24:51Z",
      "updated_at": "2019-06-02T14:48:13Z",
      "pushed_at": "2019-05-30T13:53:30Z",
      "git_url": "git://github.com/vuejs/vue.git",
      "ssh_url": "git@github.com:vuejs/vue.git",
      "clone_url": "https://github.com/vuejs/vue.git",
      "svn_url": "https://github.com/vuejs/vue",
      "homepage": "http://vuejs.org",
      "size": 27660,
      "stargazers_count": 140147,
      "watchers_count": 140147,
      "language": "JavaScript",
      "has_issues": true,
      "has_projects": true,
      "has_downloads": true,
      "has_wiki": true,
      "has_pages": false,
      "forks_count": 20133,
      "mirror_url": null,
      "archived": false,
      "disabled": false,
      "open_issues_count": 287,
      "license": {
        "key": "mit",
        "name": "MIT License",
        "spdx_id": "MIT",
        "url": "https://api.github.com/licenses/mit",
        "node_id": "MDc6TGljZW5zZTEz"
      },
      "forks": 20133,
      "open_issues": 287,
      "watchers": 140147,
      "default_branch": "dev",
      "score": 161.89702
    },
    {
      "id": 14098069,
      "node_id": "MDEwOlJlcG9zaXRvcnkxNDA5ODA2OQ==",
      "name": "free-programming-books-zh_CN",
      "full_name": "justjavac/free-programming-books-zh_CN",
      "private": false,
      "owner": {
        "login": "justjavac",
        "id": 359395,
        "node_id": "MDQ6VXNlcjM1OTM5NQ==",
        "avatar_url": "https://avatars1.githubusercontent.com/u/359395?v=4",
        "gravatar_id": "",
        "url": "https://api.github.com/users/justjavac",
        "html_url": "https://github.com/justjavac",
        "followers_url": "https://api.github.com/users/justjavac/followers",
        "following_url": "https://api.github.com/users/justjavac/following{/other_user}",
        "gists_url": "https://api.github.com/users/justjavac/gists{/gist_id}",
        "starred_url": "https://api.github.com/users/justjavac/starred{/owner}{/repo}",
        "subscriptions_url": "https://api.github.com/users/justjavac/subscriptions",
        "organizations_url": "https://api.github.com/users/justjavac/orgs",
        "repos_url": "https://api.github.com/users/justjavac/repos",
        "events_url": "https://api.github.com/users/justjavac/events{/privacy}",
        "received_events_url": "https://api.github.com/users/justjavac/received_events",
        "type": "User",
        "site_admin": false
      },
      "html_url": "https://github.com/justjavac/free-programming-books-zh_CN",
      "description": ":books: 免费的计算机编程类中文书籍，欢迎投稿",
      "fork": false,
      "url": "https://api.github.com/repos/justjavac/free-programming-books-zh_CN",
      "forks_url": "https://api.github.com/repos/justjavac/free-programming-books-zh_CN/forks",
      "keys_url": "https://api.github.com/repos/justjavac/free-programming-books-zh_CN/keys{/key_id}",
      "collaborators_url": "https://api.github.com/repos/justjavac/free-programming-books-zh_CN/collaborators{/collaborator}",
      "teams_url": "https://api.github.com/repos/justjavac/free-programming-books-zh_CN/teams",
      "hooks_url": "https://api.github.com/repos/justjavac/free-programming-books-zh_CN/hooks",
      "issue_events_url": "https://api.github.com/repos/justjavac/free-programming-books-zh_CN/issues/events{/number}",
      "events_url": "https://api.github.com/repos/justjavac/free-programming-books-zh_CN/events",
      "assignees_url": "https://api.github.com/repos/justjavac/free-programming-books-zh_CN/assignees{/user}",
      "branches_url": "https://api.github.com/repos/justjavac/free-programming-books-zh_CN/branches{/branch}",
      "tags_url": "https://api.github.com/repos/justjavac/free-programming-books-zh_CN/tags",
      "blobs_url": "https://api.github.com/repos/justjavac/free-programming-books-zh_CN/git/blobs{/sha}",
      "git_tags_url": "https://api.github.com/repos/justjavac/free-programming-books-zh_CN/git/tags{/sha}",
      "git_refs_url": "https://api.github.com/repos/justjavac/free-programming-books-zh_CN/git/refs{/sha}",
      "trees_url": "https://api.github.com/repos/justjavac/free-programming-books-zh_CN/git/trees{/sha}",
      "statuses_url": "https://api.github.com/repos/justjavac/free-programming-books-zh_CN/statuses/{sha}",
      "languages_url": "https://api.github.com/repos/justjavac/free-programming-books-zh_CN/languages",
      "stargazers_url": "https://api.github.com/repos/justjavac/free-programming-books-zh_CN/stargazers",
      "contributors_url": "https://api.github.com/repos/justjavac/free-programming-books-zh_CN/contributors",
      "subscribers_url": "https://api.github.com/repos/justjavac/free-programming-books-zh_CN/subscribers",
      "subscription_url": "https://api.github.com/repos/justjavac/free-programming-books-zh_CN/subscription",
      "commits_url": "https://api.github.com/repos/justjavac/free-programming-books-zh_CN/commits{/sha}",
      "git_commits_url": "https://api.github.com/repos/justjavac/free-programming-books-zh_CN/git/commits{/sha}",
      "comments_url": "https://api.github.com/repos/justjavac/free-programming-books-zh_CN/comments{/number}",
      "issue_comment_url": "https://api.github.com/repos/justjavac/free-programming-books-zh_CN/issues/comments{/number}",
      "contents_url": "https://api.github.com/repos/justjavac/free-programming-books-zh_CN/contents/{+path}",
      "compare_url": "https://api.github.com/repos/justjavac/free-programming-books-zh_CN/compare/{base}...{head}",
      "merges_url": "https://api.github.com/repos/justjavac/free-programming-books-zh_CN/merges",
      "archive_url": "https://api.github.com/repos/justjavac/free-programming-books-zh_CN/{archive_format}{/ref}",
      "downloads_url": "https://api.github.com/repos/justjavac/free-programming-books-zh_CN/downloads",
      "issues_url": "https://api.github.com/repos/justjavac/free-programming-books-zh_CN/issues{/number}",
      "pulls_url": "https://api.github.com/repos/justjavac/free-programming-books-zh_CN/pulls{/number}",
      "milestones_url": "https://api.github.com/repos/justjavac/free-programming-books-zh_CN/milestones{/number}",
      "notifications_url": "https://api.github.com/repos/justjavac/free-programming-books-zh_CN/notifications{?since,all,participating}",
      "labels_url": "https://api.github.com/repos/justjavac/free-programming-books-zh_CN/labels{/name}",
      "releases_url": "https://api.github.com/repos/justjavac/free-programming-books-zh_CN/releases{/id}",
      "deployments_url": "https://api.github.com/repos/justjavac/free-programming-books-zh_CN/deployments",
      "created_at": "2013-11-04T01:59:19Z",
      "updated_at": "2019-06-02T14:36:26Z",
      "pushed_at": "2019-06-01T13:16:46Z",
      "git_url": "git://github.com/justjavac/free-programming-books-zh_CN.git",
      "ssh_url": "git@github.com:justjavac/free-programming-books-zh_CN.git",
      "clone_url": "https://github.com/justjavac/free-programming-books-zh_CN.git",
      "svn_url": "https://github.com/justjavac/free-programming-books-zh_CN",
      "homepage": "http://weibo.com/justjavac",
      "size": 830,
      "stargazers_count": 50692,
      "watchers_count": 50692,
      "language": null,
      "has_issues": true,
      "has_projects": true,
      "has_downloads": true,
      "has_wiki": false,
      "has_pages": false,
      "forks_count": 16574,
      "mirror_url": null,
      "archived": false,
      "disabled": false,
      "open_issues_count": 164,
      "license": {
        "key": "gpl-3.0",
        "name": "GNU General Public License v3.0",
        "spdx_id": "GPL-3.0",
        "url": "https://api.github.com/licenses/gpl-3.0",
        "node_id": "MDc6TGljZW5zZTk="
      },
      "forks": 16574,
      "open_issues": 164,
      "watchers": 50692,
      "default_branch": "master",
      "score": 32.928238
    },
    {
      "id": 44571718,
      "node_id": "MDEwOlJlcG9zaXRvcnk0NDU3MTcxOA==",
      "name": "awesome-vue",
      "full_name": "vuejs/awesome-vue",
      "private": false,
      "owner": {
        "login": "vuejs",
        "id": 6128107,
        "node_id": "MDEyOk9yZ2FuaXphdGlvbjYxMjgxMDc=",
        "avatar_url": "https://avatars1.githubusercontent.com/u/6128107?v=4",
        "gravatar_id": "",
        "url": "https://api.github.com/users/vuejs",
        "html_url": "https://github.com/vuejs",
        "followers_url": "https://api.github.com/users/vuejs/followers",
        "following_url": "https://api.github.com/users/vuejs/following{/other_user}",
        "gists_url": "https://api.github.com/users/vuejs/gists{/gist_id}",
        "starred_url": "https://api.github.com/users/vuejs/starred{/owner}{/repo}",
        "subscriptions_url": "https://api.github.com/users/vuejs/subscriptions",
        "organizations_url": "https://api.github.com/users/vuejs/orgs",
        "repos_url": "https://api.github.com/users/vuejs/repos",
        "events_url": "https://api.github.com/users/vuejs/events{/privacy}",
        "received_events_url": "https://api.github.com/users/vuejs/received_events",
        "type": "Organization",
        "site_admin": false
      },
      "html_url": "https://github.com/vuejs/awesome-vue",
      "description": "🎉 A curated list of awesome things related to Vue.js",
      "fork": false,
      "url": "https://api.github.com/repos/vuejs/awesome-vue",
      "forks_url": "https://api.github.com/repos/vuejs/awesome-vue/forks",
      "keys_url": "https://api.github.com/repos/vuejs/awesome-vue/keys{/key_id}",
      "collaborators_url": "https://api.github.com/repos/vuejs/awesome-vue/collaborators{/collaborator}",
      "teams_url": "https://api.github.com/repos/vuejs/awesome-vue/teams",
      "hooks_url": "https://api.github.com/repos/vuejs/awesome-vue/hooks",
      "issue_events_url": "https://api.github.com/repos/vuejs/awesome-vue/issues/events{/number}",
      "events_url": "https://api.github.com/repos/vuejs/awesome-vue/events",
      "assignees_url": "https://api.github.com/repos/vuejs/awesome-vue/assignees{/user}",
      "branches_url": "https://api.github.com/repos/vuejs/awesome-vue/branches{/branch}",
      "tags_url": "https://api.github.com/repos/vuejs/awesome-vue/tags",
      "blobs_url": "https://api.github.com/repos/vuejs/awesome-vue/git/blobs{/sha}",
      "git_tags_url": "https://api.github.com/repos/vuejs/awesome-vue/git/tags{/sha}",
      "git_refs_url": "https://api.github.com/repos/vuejs/awesome-vue/git/refs{/sha}",
      "trees_url": "https://api.github.com/repos/vuejs/awesome-vue/git/trees{/sha}",
      "statuses_url": "https://api.github.com/repos/vuejs/awesome-vue/statuses/{sha}",
      "languages_url": "https://api.github.com/repos/vuejs/awesome-vue/languages",
      "stargazers_url": "https://api.github.com/repos/vuejs/awesome-vue/stargazers",
      "contributors_url": "https://api.github.com/repos/vuejs/awesome-vue/contributors",
      "subscribers_url": "https://api.github.com/repos/vuejs/awesome-vue/subscribers",
      "subscription_url": "https://api.github.com/repos/vuejs/awesome-vue/subscription",
      "commits_url": "https://api.github.com/repos/vuejs/awesome-vue/commits{/sha}",
      "git_commits_url": "https://api.github.com/repos/vuejs/awesome-vue/git/commits{/sha}",
      "comments_url": "https://api.github.com/repos/vuejs/awesome-vue/comments{/number}",
      "issue_comment_url": "https://api.github.com/repos/vuejs/awesome-vue/issues/comments{/number}",
      "contents_url": "https://api.github.com/repos/vuejs/awesome-vue/contents/{+path}",
      "compare_url": "https://api.github.com/repos/vuejs/awesome-vue/compare/{base}...{head}",
      "merges_url": "https://api.github.com/repos/vuejs/awesome-vue/merges",
      "archive_url": "https://api.github.com/repos/vuejs/awesome-vue/{archive_format}{/ref}",
      "downloads_url": "https://api.github.com/repos/vuejs/awesome-vue/downloads",
      "issues_url": "https://api.github.com/repos/vuejs/awesome-vue/issues{/number}",
      "pulls_url": "https://api.github.com/repos/vuejs/awesome-vue/pulls{/number}",
      "milestones_url": "https://api.github.com/repos/vuejs/awesome-vue/milestones{/number}",
      "notifications_url": "https://api.github.com/repos/vuejs/awesome-vue/notifications{?since,all,participating}",
      "labels_url": "https://api.github.com/repos/vuejs/awesome-vue/labels{/name}",
      "releases_url": "https://api.github.com/repos/vuejs/awesome-vue/releases{/id}",
      "deployments_url": "https://api.github.com/repos/vuejs/awesome-vue/deployments",
      "created_at": "2015-10-20T00:16:14Z",
      "updated_at": "2019-06-02T14:14:20Z",
      "pushed_at": "2019-06-02T10:17:37Z",
      "git_url": "git://github.com/vuejs/awesome-vue.git",
      "ssh_url": "git@github.com:vuejs/awesome-vue.git",
      "clone_url": "https://github.com/vuejs/awesome-vue.git",
      "svn_url": "https://github.com/vuejs/awesome-vue",
      "homepage": "",
      "size": 4269,
      "stargazers_count": 45827,
      "watchers_count": 45827,
      "language": null,
      "has_issues": true,
      "has_projects": true,
      "has_downloads": true,
      "has_wiki": false,
      "has_pages": false,
      "forks_count": 6369,
      "mirror_url": null,
      "archived": false,
      "disabled": false,
      "open_issues_count": 119,
      "license": null,
      "forks": 6369,
      "open_issues": 119,
      "watchers": 45827,
      "default_branch": "master",
      "score": 94.8738
    }
  ]
}
